%YAML 1.1
%TAG !u! tag:unity3d.com,2011:
--- !u!114 &11400000
MonoBehaviour:
  m_ObjectHideFlags: 0
  m_PrefabParentObject: {fileID: 0}
  m_PrefabInternal: {fileID: 0}
  m_GameObject: {fileID: 0}
  m_Enabled: 1
  m_EditorHideFlags: 0
  m_Script: {fileID: 11500000, guid: b81399e32b0294817b38ebfc228cbf47, type: 3}
  m_Name: Void-Gang Thug
  m_EditorClassIdentifier: 
  maxHealth: 7
  enemyType: 0
  enemySubTypes: 01000000
  abilities:
  - validZones: 02000000
    effects:
    - abilityEffects:
      - {fileID: 11400000, guid: eb3a8fe5e325946de9e240ae9997f542, type: 2}
      target: {fileID: 11400000, guid: 0602efa25b6434545a73ab32c2ca3775, type: 2}
      targetZones: 02000000
    costs: []
  - validZones: 02000000
    effects:
    - abilityEffects:
      - {fileID: 11400000, guid: eb3a8fe5e325946de9e240ae9997f542, type: 2}
      target: {fileID: 11400000, guid: 8941b2198fd2440f1a141beb658ed5e3, type: 2}
      targetZones: 05000000
    costs: []
