%YAML 1.1
%TAG !u! tag:unity3d.com,2011:
--- !u!114 &11400000
MonoBehaviour:
  m_ObjectHideFlags: 0
  m_PrefabParentObject: {fileID: 0}
  m_PrefabInternal: {fileID: 0}
  m_GameObject: {fileID: 0}
  m_Enabled: 1
  m_EditorHideFlags: 0
  m_Script: {fileID: 11500000, guid: cec7f1fbc86db4aca8c6fc1a9a38adc4, type: 3}
  m_Name: Garbage Salvager
  m_EditorClassIdentifier: 
  faction: 0
  upgradeLevels:
  - minimum: 0
    maximum: 0
    data: {fileID: 11400000, guid: 9f0bb114129a746cf8001953ccfe24ec, type: 2}
  - minimum: 1
    maximum: 5
    data: {fileID: 11400000, guid: ffe1fe02d00e3465b860b863d659d640, type: 2}
  cardType: 0
