%YAML 1.1
%TAG !u! tag:unity3d.com,2011:
--- !u!114 &11400000
MonoBehaviour:
  m_ObjectHideFlags: 0
  m_PrefabParentObject: {fileID: 0}
  m_PrefabInternal: {fileID: 0}
  m_GameObject: {fileID: 0}
  m_Enabled: 1
  m_EditorHideFlags: 0
  m_Script: {fileID: 11500000, guid: 1450bb188959c488e9431782d86c20f3, type: 3}
  m_Name: 1AP
  m_EditorClassIdentifier: 
  canAutomate: 1
  num: {fileID: 11400000, guid: ede8efc11b790415c9e7458979e48584, type: 2}
